{
	"@w": {
		"prefix": "@w",
		"body": "@wingnut/"
	},
	"/* eslint-env node */": {
		"prefix": "envnode",
		"body": "/* eslint-env node */"
	},
	"Assert": {
		"prefix": "ass",
		"body": "Assert($1)"
	},
	"console.log": {
		"prefix": "cl",
		"body": "console.log($1)"
	},
	"console.log a variable": {
		"prefix": "clv",
		"body": "console.log(`$1`, $1)"
	},
	"export default ": {
		"prefix": "ed",
		"body": "export default "
	},
	"Field": {
		"prefix": "field",
		"body": "const $1$ = Field({\n\n\t$2\n\n\t$pull: Pipe(({ $3 }) => (\n\t\t$4\n\t))\n\n})"
	},
	"FileSystem": {
		"prefix": "fs",
		"body": "FileSystem"
	},
	"from '@": {
		"prefix": "from '@",
		"body": "from '@wingnut/$1'"
	},
	"moduleDirname": {
		"prefix": "mdn",
		"body": "import ModuleDirname from '@wingnut/Nodejs.ModuleDirname';\n\nconst moduleDirname = ModuleDirname(import.meta)"
	},
	"OperatingSystem": {
		"prefix": "os",
		"body": "OperatingSystem"
	},
	"return": {
		"prefix": "r",
		"body": "return "
	},
	"return undefined;": {
		"prefix": "ru",
		"body": "return undefined"
	},
	"throw Error": {
		"prefix": "te",
		"body": "throw Error($1)"
	},
	"undefined": {
		"prefix": "u",
		"body": "undefined"
	},
	"wingnut": {
		"prefix": "wn",
		"body:": "wingnut"
	},
	"Wingnut": {
		"prefix": "Wn",
		"body:": "Wingnut"
	},
}
