{
	"get_context_data": {
		"prefix": "gcd",
		"body": "    def get_context_data(self, *args, **kwargs):\n\n        context_data = super().get_context_data(*args, **kwargs)\n\n        context_data['$1'] = \n\n        return context_data"
	},
	"print": {
		"prefix": "pr",
		"body": "print($1);"
	},
	"print a variable": {
		"prefix": "prv",
		"body": "print('$1', $1);"
	},
	"supermethod": {
		"prefix": "supermethod",
		"body": "    def $1(self, $2*args, **kwargs):\n\n        $3 = super().$1($2*args, **kwargs)\n\n        $4\n\n        return $3"
	}
}