{
	"console.log": {
		"prefix": "cl",
		"body": "console.log($1)"
	},
	"console.log a variable": {
		"prefix": "clv",
		"body": "console.log(`$1`, $1)"
	},
	"export default ": {
		"prefix": "ed",
		"body": "export default "
	},
	"return": {
		"prefix": "r",
		"body": "return "
	},
	"return undefined;": {
		"prefix": "ru",
		"body": "return undefined"
	},
	"throw Error": {
		"prefix": "te",
		"body": "throw Error($1)"
	},
	"undefined": {
		"prefix": "u",
		"body": "undefined"
	}
}
